This Talk is on Fire
…
---

## Getting Tweets

The main function we'll use is `rtweet::get_timeline`.

--

Which returns a looooot of stuff.

```r
get_timeline("NYCFireWire")
## # A tibble: 100 x 88
##    user_id status_id created_at          screen_name text  source
##    <chr>   <chr>     <dttm>              <chr>       <chr> <chr> 
##  1 560024… 11259028… 2019-05-07 23:18:45 NYCFireWire Stat… thefi…
##  2 560024… 11258382… 2019-05-07 19:02:08 NYCFireWire Bron… thefi…
##  3 560024… 11258128… 2019-05-07 17:21:12 NYCFireWire Broo… thefi…
##  4 560024… 11257955… 2019-05-07 16:12:36 NYCFireWire Broo… thefi…
##  5 560024… 11257948… 2019-05-07 16:09:52 NYCFireWire Broo… thefi…
##  6 560024… 11257160… 2019-05-07 10:56:35 NYCFireWire Broo… thefi…
##  7 560024… 11256887… 2019-05-07 09:08:12 NYCFireWire Broo… Twitt…
##  8 560024… 11256880… 2019-05-07 09:05:19 NYCFireWire Bron… thefi…
##  9 560024… 11256528… 2019-05-07 06:45:32 NYCFireWire Bron… thefi…
## 10 560024… 11256470… 2019-05-07 06:22:13 NYCFireWire Broo… thefi…
## # … with 90 more rows, and 82 more variables: display_text_width <dbl>,
## #   reply_to_status_id <lgl>, reply_to_user_id <lgl>,
## #   reply_to_screen_name <lgl>, is_quote <lgl>, is_retweet <lgl>,
## #   favorite_count <int>, retweet_count <int>, hashtags <list>,
## #   symbols <list>, urls_url <list>, urls_t.co <list>,
## #   urls_expanded_url <list>, media_url <list>, media_t.co <list>,
## #   media_expanded_url <list>, media_type <list>, ext_media_url <list>,
## #   ext_media_t.co <list>, ext_media_expanded_url <list>,
## #   ext_media_type <chr>, mentions_user_id <list>,
…
